#SPC
{
	#author "Jimmy52905"
	#comment "Ice theme 2"
	#game "SMW Central Production 2"
}

#samples
{
	#default
	#AMM
	#sky_and_dream
	"CStrings.brr"
  "CChoir.brr"
}

#0 w160 t64

$EF $FF $2F $2F
$F1 $03 $63 $01



;;;;;;;;;;; INSTRUMENTS ;;;;;;;;;;;

(100)[$ED $5B $70
      $EE $00
      v188]1		; Crystal

(101)[("CStrings.brr", $03)
      $ED $15 $A0
      v110 ]1		; Light Strings

(102)[("CStrings.brr", $03)
      $ED $1D $A0
      v155 ]1		; Normal Strings

(103)[$ED $7F $FB
      $EE $00
      v160]1		; Square Blips

(104)[$ED $7F $F0
      $EE $00
      v210]1		; Slap Bass

(105)[
	$ED $6F $8A
      $EE $00
      v140]1		; Harp

(106)[("CChoir.brr", $09)
	$ED $5C $A0
      $EE $00
      v170]1		; Choir

(107)[$ED $7C $E0
      $EE $00
      v235]1		; Trumpet

(108)[$ED $5F $C6
      $EE $00
      v200]1		; Piano (low)

;;;;;;;;;;;;;;;;;;;;;;;;;;;;;;;;;;;

#0
@02 
(100)1
y13

o4
f1
f1
e1
e1
d1
f1
a1
g1
o2
@0(101) h-8
y05
a1^1
g1^1
o4
@0 h0
(103)1
y13
(10)[d16r8^16d16r4^8^16c16r16d16r8^16
     c16r16d16r8d16f16r16e16r16d16r16c16r16
     c16r8^16c16r4^8^16<a+16r16>c16r8^16
     <a+16r16>c16r16d16r16f16r16e16r16d16r16e16r16]1
r1^1
@14
(104)1
o2
[v210 d8 v105 d8d8d8 v210 d8d8c8d8
 v105 d8 v210 c8d8 v105 d8 v210 d4 $DD $00 $18 $95 v105 a4
 v210 c8 v105 c8c8c8 v210 c8c8<b8>c8
 v105 c8 v210 <b8>c8 v105 c8 v210 c4 $DD $00 $18 $93 v105 g4]5
r1^1^1
@00
(105)1
o3
d32c32d32f32d32f32g32f32g32a32g32a32>c32<a32>c32d32c32d32f32d32f32g32f32g32a32g32a32>c32<a32>c32d32c32
@14
(104)1
o2
[d8d8d4d8r8d8r8
 d8r8d8r8d8r8d8r8
 c8c8c4c8r8c8r8
 c8r8c8r8c8r8c8r8
 <a+8a+8a+4a+8r8a+8r8
 a+8r8a+8r8a+8r8a+8r8
 a8a8a4a8r8a8r8
 a8r8a8r8a8r8a8r8>]2
@09 h5
(108)1
o4
d16r16d16r16d16r16d16r16d4e4
f4r4f4e4
c16r16c16r16c16r16c16r16c4d4
c2r2
<a+16r16a+16r16a+16r16a+16r16a+4>c4
d4r4d4c4
<a16r16a16r16a16r16a16r16a4a+4
a2r2
@14 h0
(104)1
o2
[d8]16
[c8]16
<
(11)[a+8]16
(12)[a8]16
(11)16
(12)16
(11)16
(12)16
$E1 $C0 $7F
a1 $E1 $C0 $00 ^1

#1
@02
(100)1
y13

o4
d1
d1
c1
c1
<a1
>d1
e1
e1

@0(101) h-8
y05
o3
d1^1
c1^2
c+2
d1^1
c1^2
c+2
(102) h-8
y10
(20)[d16r16d16r16d8^16r16]4
(101) h-8
y05
d1^1
c1^2
c+2
d1^1
c1^2
c+2
@02 h-5
(100)1
y13
o4
a8>d8<a8>d8<a8>d8<a8>d8
f8e8d8<a8a8>d8d8d8
<g4>c4c4c4
e4c4c+4c+4
@00
(101) h-8
y05
o3
d1^1
c1^2
c+2
@00
(103)1
y13
(10)1
;@02
(102) h-8
y10
(20)8
(101) h-8
o5
@06 h0
(107)1
y13
$DE $2E $0C $38
$EA $35
d4 $DD $00 $2A $B5 ^2^8r8
f8d8<a8>f8r8a4r8
c4 $DD $00 $2A $B4 ^2^8r8
e8<g8>c8g8r8g8f8e8
d4 $DD $00 $2A $B5 ^2^8r8
<a+8>d8e8f8r8a+4^8
a1^2^4^8
r8
f4 $DD $00 $2A $B9 ^2^8r8
d8e8f8g8r8a4r8
e4 $DD $00 $2A $B7 ^2^8r8
g8c8g8a+4^8a8g8
f4 $DD $00 $2A $B9 ^2^8r8
a8f8a8>d4<a8>d8f8
c+4 $DD $00 $30 $C0 ^1^2^4
@09 h5
(108)1
p0,0
o3
a16r16a16r16a16r16a16r16a4a4
>d4r4d4d4
<g16r16g16r16g16r16g16r16g4a4
g2r2
f16r16f16r16f16r16f16r16f4f4
a+4r4a+4a+4
e16r16e16r16e16r16e16r16e4e4
e2r2
@00
(102) h-8
v200
o5
f16r16f16r16f16r16f16r16f4g4
a4r4a4g4
e16r16e16r16e16r16e16r16e4f4
e2r2
d16r16d16r16d16r16d16r16d4e4
f4r4f4e4
c+16r16c+16r16c+16r16c+16r16c+4d4
c+2r2<
(25)[a+16r16a+16r16a+16r16a+16r16a+4>c4
     d4]1 r4d4c4
<a16r16a16r16a16r16a16r16a4a+4
a2r2
(25)1 >f4a4a+4
a1^1^1^1

#2
@02
(100)1
y13

o5
(30)[a8 a16r8^16a16r8^16a1^4^8]1
g8g16r8^16g16r8^16g1^4^8
(30)1
>c8c16r8^16c16r8^16c1^4^8<
(31)[d8f8<a8>d8e8g8e8f8
     r8f8<a8>d8e8g8e8f8]3
(32)[c8e8<g8>c8e8g8d+8e8
     r8e8<g8>c8e8g8e8f8]1
(33)[a4r4a4r4
     a8a8r8a4r4^8]1
[r1]4
<a8>f8d8f8d8<a8f8a8
>a8g8f8g8e8f8d8<a8
>g8f8c8e8c8e8<g8>c8
g8f8c8e8c+8e8<g8>c+8
[d8f8]2 [d8e8]2
a8g8f8e8d8e8g8f8
c4e4f4e4
g4f4e4f4
(31)3
(32)1
(33)2
v150
(34)[a4r4a4a4
     a8a8r8a4r8a4]1
g4r4g4g4
g8g8r8g4r8g4
(34)1
e4r4e4e4
e8e8r8e4r8e4
@00
(105)1
o3
[d16f16a16>d16<a16>d16<a16>d16f16d16<a16>d16<a16f16a16f16]2
[c16e16g16e16g16>c16<g16>c16e16c16<g16>c16<g16e16g16e16]2
[<a+16>d16f16d16f16a+16f16a+16>d16<a+16f16a+16f16d16f16d16]2
(35)[<a16>c+16e16c+16e16a16e16a16>c+16<a16]1 e16a16e16c+16e16c+16
(35)1 >c+16e16c+16e16a16>c+16
@09 h5
(108)1
o3
f16r16f16r16f16r16f16r16f4f4
a4r4a4a4
e16r16e16r16e16r16e16r16e4e4
e2r2
d16r16d16r16d16r16d16r16d4d4
f4r4f4f4
c+16r16c+16r16c+16r16c+16r16c+4c+4
c+2r2
@02 h-5
(100)1
v160
o5
[a4f4]3
a4a+4
[g4e4]3
a+4a4
[f4d4f4d4
 f4d4f4a+4
 a4e4a4e4
 a4e4a4e4]3
a1^1

#3

(101) h-8
y05

o4
d1^1
c1^2
<a+2
a1^1
g1^1
>
(41)[d1^1
     c1^2
     c+2]2
(102) h-8
y10
(40)[d16r16d16r16d8^16r16]4
(101) h-8
y05
(41)5
(102) h-8
y10
(40)8

(106)1
y15
$DE $2E $0C $38
$EA $35
a1^1
g1^1
f1^1
e1^1
a1^1
g1^1
a1^1
>c+1^1
p0,0
[r1]7
<
(102) h-8
v200
y13
{c+8<a8>c+8e8c+8e8a8e8a8>c+8<a8>c+8}
v155
<a1^1
g1^1
f1^1
e1^1
d1^1
c+1^1
d1^1
c+1^1^1^1

#7

(101) h-8
y05

o3
r1
a1
g1^1
f1^1
e1^1
(50)[a1^1
     g1^1]2
(102) h-8
y10
(51)[a16r16a16r16a8^16r16]4
(101) h-8
y05
(50)5
(102) h-8
y10
(51)8

(106)1
y15
$DE $2E $0C $38
$EA $35
>
f1^1
e1^1
d1^1
c+1^1
f1^1
e1^1
f1^1
a1^1
p0,0
[r1]8

(102) h-8
y13
f1^1
e1^1
d1^1
c+1^1
<a+1^1
a1^1
a+1^1
a1^1^1^1

#5

(101) h-8
y05
[r1]4
o3
d1^1
c1^2
c+2
(60)[f1^1
     e1^1]2
(102) h-8
y10
(61)[f16r16f16r16f8^16r16]4
(101) h-8
y05
(60)5
(102) h-8
y10
(61)8

(106)1
y15
$DE $2E $0C $38
$EA $35
>
d1^1
c1^1
<a1^1
a1^1
>d1^1
c1^1
d1^1
e1^1
p0,0
o2
@09 h5
(108)1
y13
d4d2^4
d2d2
c4c2^4
c2c2
<a+4a+2^4
a+2a+2
a4a2^4
a2a2
@00
(102) h-8
y13
o4
d1^1
c1^1
<a+1^1
a1^1
f1^1
e1^1
f1^1
e1^1^1^1

#4

v255
y07
o5
[r1]8
(80)[@22 b8 v160 @22 b16@22 b16 v255 @22 b8 v160 @22 b8 v255 @22 b8 v160 @22 b16 @22 b16 v255 @22 b8 @22 b8]8
(81)[@23 o3r4a+4]4
(80)20
@23
(81)8
[@22 f+8r8]53
[@22 f+8 @23 a+8 @22 f+8r8]4
@22 f+8r8 @23 a+4r4
(82)[@22 f+8 @22 f+8 @23 a+4]1 r2
(82)1 @22 f+8 @22 f+8 @23 a+4
(82)1 r2
[@23 a+8 @22 f+8]4
(82)1 r1^2
(82)1 r1^8
@22 f+16 @22 f+16 @23 a+4

@00
(102) h-8
v200
y13
o5
d16r16d16r16d16r16d16r16d4e4
f4r4f4e4
c16r16c16r16c16r16c16r16c4d4
c2r2
<a+16r16a+16r16a+16r16a+16r16a+4>c4
d4r4d4c4
<a16r16a16r16a16r16a16r16a4a+4
a2r2
(83)[f16r16f16r16f16r16f16r16f4a4
     a+4]1 r4a+4a4
e16r16e16r16e16r16e16r16e4f4
e2r2
(83)1 >d4f4f4
e1^1^1^1

#6
v220
y07

[r1]4
o3
(70)[ @26 f8 @21 c8 @23 f+8 @21 c8 @26 f8 @21 c8 @29 b8 @23 f+8]3
 @26 f8 @21 c8 @23 f+8 @21 c8 @26 f8v096 @29 b16v160 @29 b16v220 @29 b8 @29 b8
(70)8
(71)[ @26 f8 @21 c8 @29 b8 @21 c8]4
(70)20
(71)8
[v220 @21 c8v160c8v110c8v080c8r2
 v220c8v160c8v110c8v080c8v220c8v160c8v220 @29 b8r8]6
[ @26 f8 @21 c8 @29 b8r8]6
 @21 c8c8c8c8 @29 b8r4^8
[ @21 c4c4r2
 c4c4c4c4]2
[c4c4r2]3
c4c4r8c8 @29 b8r8
(70)16
 @23 a+1^1                

#amk=1
