#SPC
{
	#author "Kipernal"
	#comment "Switch palace theme"
	#game "SMW Central Production 2"
}

#samples
{
	#default
	#AMM
	#sky_and_dream
}

#0 w160
 t26@3v255  
r16^32
(1)[ y0 $DC $30 $14 o4g16d16>d32<d32g16d8 $DC $30 $00 g+16d+16>d+32<d+32g+16d+8]9








(5)[ y0 $DC $30 $14 g16d16>d32<d32g16d8 $DC $30 $00 g+16d+16>d+32<d+32g+16d+32]
$E8 $D0 $C0
/
^16^32
(1)2


(2)[ y0 $DC $30 $14 g16d16>d32<d32g16 $DC $30 $00 d8a+16f16>f32<f32a+16f8](1)
(2)(1)
(2)(1)
(2)(1)

   [  y0 $DC $30 $14 g16 d16 >d32 <d32 g16 d8  $DC $30 $00 g16 d16 >d32 <d32 g16 d8
      y0 $DC $30 $14 g+16d+16>d+32<d+32g+16d+8 $DC $30 $00 g+16d+16>d+32<d+32g+16d+8
      y0 $DC $30 $14 a16 e16>e32<e32a16 e8 $DC $30 $00 a16 e16>e32<e32a16 e8 
      y0 $DC $30 $14 a+16f16>f32<f32a+16f8 $DC $30 $00 a+16f16>f32<f32a+16f8]2
(2)(1)
(2)(1)
(2)(4)[ y0 $DC $30 $14 g16d16>d32<d32g16d8 $DC $30 $00 g+16d+16>d+32<d+32g+16d+32^16^32]
(2)(4)
(1)(5)



#1
@3v255 
(7)[y0 o2g16>d8g16^32d16^32 $DC $48 $14 <g+16>d+8g+16^32d+16^32]10








$E8 $D0 $C0
/
(7)2
(8)[y0 <g16>d8g16^32d16^32 $DC $48 $14 <a+16>f8a+16 ^32f16 ^32](7)
(8)(7)
(8)(7)
(8)(7)
(9)[y0 <g16>d8g16^32d16^32 $DC $48 $14<g16 >d8g16^32 d16^32y0 <g+16>d+8g16^32d+16^32 $DC $48 $14<g16 >d+8 g16^32 d+16^32]
(10)[y0 <a16>e8g16^32e16^32$DC $48 $14<a16 >e8g16^32 e16^32y0 <a+16>f8a+16^32f16^32  $DC $48 $14<a+16>f8  a+16^32f16 ^32]
(9)
(10)
(8)(7)
(8)(7)
(8)(7)
(8)(7)3




#2

(11)[@12 v113 y10 o4a32a32>c32c32]60

/
(11)12

@9 $ED $6D $A3 y12 v255 
o3g8^32f32g16^32a16^32a+4^8
g8^32f32g16^32d16^32f4^8
g8^32f32g16^32a16^32a+4^32>c16^32
$F4 $01 d4^8d+4^8 $F4 $01

<g8^32f32g16^32a16^32a+16^32 v151 d32f32a32>d32d+32d32<a32f32d32v255 g8^32f32>c16^32<a+16^32f16^32 v151 <a32>c32e32a32a+32a32e32c32<a32
v255 >g8^32f32g16^32a16^32a+4^32>f16^32
$F4 $01 d4^8c4^8 $F4 $01 

d8^32<g4^8^16^32>d8d+8^32<g4^8^16^32>d+8
e8^32<g4^8^16^32>e8f8^32<g8^16^32 v154 >f32 v162 d32 v171 c32 v180 d32 v191 c32 v200 <a32 v209 >c32 v217 <a32 v226 g32 v238 a32 v246 >c32 v255 c+32
d8^32<g4^8^16^32>d8d+8^32<g4^8^16^32>d+8
e8^32<g4^8^16^32>e8f8^32

a32^32^32^32^32^32^32^32^32^32^32^32^32 $DD $00 $24 $B1 ^32^32^32^32^32^32

<g8^32f32g16^32a16^32a+16^32 v151 d32f32a32>d32d+32d32<a32f32d32v255 g8^32f32>c16^32<a+16^32f16^32 v151 <a32>c32e32a32a+32a32e32c32<a32
v255 >g8^32f32g16^32a16^32a+4^32>c16^32
$F4 $01 d4^8d+4^8 $F4 $01
<g8^32f32g16^32a16^32a+16^32 v151 d32f32a32>d32d+32d32<a32f32d32v255 g8^32f32>c16^32<a+16^32f16^32 v151 <a32>c32e32a32a+32a32e32c32<a32
v255 >g8^32f32g16^32a16^32a+4^32>c16^32
$F4 $01 d4^8d+4^8 $F4 $01
@12 v113 (11)12



#3
r1^2 v255 o3
(12)[@21y9c16^32@21c16^32 @21c16^32 @21c16^32 @21c16^32 @21c16^32 @21c16^32 @21c16 @21c32]2 


(13)[@21y9c16^32 @29y14c16^32 @21y9c16 @21c32 @29y14c16^32 @21y9c16^32 @29y14c16^32 @21y9c16 @21c32 @29y14c16 @29y14c32]6





/
(13)28




#7
r1^2
^1^2
^1^2
^1^2
^1^2
/^1^2

(11)3


(14)[o4b32b32>d32d32]3


(11)9








(14)3


(11)9








(14)3


(11)9








(14)3


(11)6





^1^2
^1^2
^1^2
^1^2
(11)3


(14)3


(11)9








(14)3


(11)9








(14)3


(11)9








(14)3


(11)6





^1^2



#5
r1^2
^1^4^16 @10v255o4c32 @10v136c64 @10v191c64 @10v226c32 @29v128<c32 @29v186c32 @29v243c32
@18 v255 
(15)[g4^8g+4^8g4^8f4^8]
g4^8g+4^8g4^8a+4^8
(15)
/g4^8g+4^8b4^8>c4^8
(16)[<g4^8a+4^8g4^8f4^8]
(17)[g4^8a+4^8b4^8>c4^8]
(16)
(17)

(11)48

















































@18 v255 
(16)
(17)
(16)
(17)
(15)



#6
r1^2
^1^2
^1^2
^1^2
^1^2
/^1^2
^1^2
^1^2
^1^2
^1^2
^1^2
^1^2
^1^2
^1^2
^1^2
^1^2
@2 
v255 y15 o4 v151 
g16d16f16g16d16a16a+16d+16f16g16f16d+16
y5
g16d16f16g16d16f16g16d16f16d16c16<a+16
y10
 >g16 v151 d16f16g16d16a16a+16d+16f16g16a16a+16>c16<d16f16g16a16>c16<a+16>d16<f16d16f16a+16
g1^2



#4
r1^2
^1^4^8^32  @29v128o3c32 @29v186c32 @29v243c32
^1^2
^1^2
@8 $ED $7F $E0 v255 
(18)[$F4 $01 y14 $DC $48 $06 <

v255 $E8 $0C $20 c32 
v255 $E8 $0C $20 c32 
v255 $E8 $0C $20 g32> 
v255 $E8 $0C $20 c32< 
v255 $E8 $0C $20 g32> 
v255 $E8 $0C $20 c32<

v255 $E8 $0C $20 c32
v255 $E8 $0C $20 c32
v255 $E8 $0C $20 g32>
v255 $E8 $0C $20 c32<
v255 $E8 $0C $20 g32>
v255 $E8 $0C $20 c32< $DC $48 $0E $F4 $01
v255 $E8 $0C $20 c+32 $F4 $01
v255 $E8 $0C $20 c+32
v255 $E8 $0C $20 g+32>
v255 $E8 $0C $20 c+32<
v255 $E8 $0C $20 g+32>
v255 $E8 $0C $20 c+32<
v255 $E8 $0C $20 c+32
v255 $E8 $0C $20 c+32
v255 $E8 $0C $20 g+32>
v255 $E8 $0C $20 c+32<
v255 $E8 $0C $20 g+32>
v255 $E8 $0C $20 c+32 $F4 $01]2

/
(18)2

(19)[$F4 $01 y14 $DC $48 $06 <
v255 $E8 $0C $20 c32
v255 $E8 $0C $20 c32
v255 $E8 $0C $20 g32>
v255 $E8 $0C $20 c32<
v255 $E8 $0C $20 g32>
v255 $E8 $0C $20 c32<
v255 $E8 $0C $20 c32
v255 $E8 $0C $20 c32
v255 $E8 $0C $20 g32>
v255 $E8 $0C $20 c32<
v255 $E8 $0C $20 g32>
v255 $E8 $0C $20 c32< $DC $48 $0E  $F4 $01
v255 $E8 $0C $20 d+32 $F4 $01
v255 $E8 $0C $20 d+32
v255 $E8 $0C $20 a+32>
v255 $E8 $0C $20 d+32<
v255 $E8 $0C $20 a+32>
v255 $E8 $0C $20 d+32<
v255 $E8 $0C $20 d+32
v255 $E8 $0C $20 d+32
v255 $E8 $0C $20 a+32>
v255 $E8 $0C $20 d+32<
v255 $E8 $0C $20 a+32>
v255 $E8 $0C $20 d+32 $F4 $01]
(18)
(19)
(18)


(19)
(18)
(19)
(18)



(20)[$F4 $01 y14 $DC $48 $06 <
v255 $E8 $0C $20 c32
v255 $E8 $0C $20 c32
v255 $E8 $0C $20 g32>
v255 $E8 $0C $20 c32<
v255 $E8 $0C $20 g32>
v255 $E8 $0C $20 c32<
v255 $E8 $0C $20 c32
v255 $E8 $0C $20 c32
v255 $E8 $0C $20 g32>
v255 $E8 $0C $20 c32<
v255 $E8 $0C $20 g32>
v255 $E8 $0C $20 c32< $DC $48 $0E $F4 $01
v255 $E8 $0C $20 c32 $F4 $01
v255 $E8 $0C $20 c32
v255 $E8 $0C $20 g32>
v255 $E8 $0C $20 c32<
v255 $E8 $0C $20 g32>
v255 $E8 $0C $20 c32<
v255 $E8 $0C $20 c32
v255 $E8 $0C $20 c32
v255 $E8 $0C $20 g32>
v255 $E8 $0C $20 c32<
v255 $E8 $0C $20 g32>
v255 $E8 $0C $20 c32 $F4 $01
]
(21)[$F4 $01 y14 $DC $48 $06 <
v255 $E8 $0C $20 c+32
v255 $E8 $0C $20 c+32
v255 $E8 $0C $20 g32>
v255 $E8 $0C $20 c+32<
v255 $E8 $0C $20 g32>
v255 $E8 $0C $20 c+32<
v255 $E8 $0C $20 c+32
v255 $E8 $0C $20 c+32
v255 $E8 $0C $20 g32>
v255 $E8 $0C $20 c+32<
v255 $E8 $0C $20 g32>
v255 $E8 $0C $20 c+32 $DC $48 $0E $F4 $01 <
v255 $E8 $0C $20 c+32 $F4 $01
v255 $E8 $0C $20 c+32
v255 $E8 $0C $20 g32>
v255 $E8 $0C $20 c+32<
v255 $E8 $0C $20 g32>
v255 $E8 $0C $20 c+32<
v255 $E8 $0C $20 c+32
v255 $E8 $0C $20 c+32
v255 $E8 $0C $20 g32>
v255 $E8 $0C $20 c+32<
v255 $E8 $0C $20 g32>
v255 $E8 $0C $20 c+32 $F4 $01]
(22)[ $F4 $01 y14 $DC $48 $06 <
v255 $E8 $0C $20 d32
v255 $E8 $0C $20 d32
v255 $E8 $0C $20 g32>
v255 $E8 $0C $20 d32<
v255 $E8 $0C $20 g32>
v255 $E8 $0C $20 d32<
v255 $E8 $0C $20 d32
v255 $E8 $0C $20 d32
v255 $E8 $0C $20 g32>
v255 $E8 $0C $20 d32<
v255 $E8 $0C $20 g32>
v255 $E8 $0C $20 d32< $DC $48 $0E  $F4 $01
v255 $E8 $0C $20 d32 $F4 $01
v255 $E8 $0C $20 d32
v255 $E8 $0C $20 g32>
v255 $E8 $0C $20 d32<
v255 $E8 $0C $20 g32>
v255 $E8 $0C $20 d32<
v255 $E8 $0C $20 d32
v255 $E8 $0C $20 d32
v255 $E8 $0C $20 g32>
v255 $E8 $0C $20 d32<
v255 $E8 $0C $20 g32>
v255 $E8 $0C $20 d32 $F4 $01]
(20)3

(21)
(22)
(19)
(18)
(19)
(18)

(19)
(18)
(19)
(18)
(19)
(18)



[$F4 $01 y14 $DC $48 $06 <
v255 $E8 $0C $20 c32
v255 $E8 $0C $20 c32
v255 $E8 $0C $20 g32>
v255 $E8 $0C $20 c32<
v255 $E8 $0C $20 g32>
v255 $E8 $0C $20 c32<
v255 $E8 $0C $20 c32
v255 $E8 $0C $20 c32
v255 $E8 $0C $20 g32>
v255 $E8 $0C $20 c32<
v255 $E8 $0C $20 g32>
v255 $E8 $0C $20 c32< $DC $48 $0E $F4 $01
v255 $E8 $0C $20 c+32 $F4 $01
v255 $E8 $0C $20 c+32
v255 $E8 $0C $20 g+32>
v255 $E8 $0C $20 c+32<
v255 $E8 $0C $20 g+32>
v255 $E8 $0C $20 c+32<
v255 $E8 $0C $20 c+32
v255 $E8 $0C $20 c+32
v255 $E8 $0C $20 g+32>
v255 $E8 $0C $20 c+32<
v255 $E8 $0C $20 g+32>
v255 $E8 $0C $20 c+32 $F4 $01]2
                

#amk=1
